Using the `sparseR` package • sparseR
…
Centering to different values

In many cases with interactions, it makes sense to center variables to certain values (or rather, it does not make sense to center variables to their mean or to zero). Therefore we built some flexibility into sparseR and sparseR_prep in order to allow users to change these as the context dictates.

Each covariate’s centering location (in this case their minima) can be passed into sparseR_prep as follows:

cc <- iris %>%
    select(Sepal.Length, Petal.Length, Petal.Width) %>%
    apply(2, min, na.rm = TRUE)

p1 <- sparseR_prep(Sepal.Width ~ ., iris, k = 0, extra_opts = list(centers = cc))
(c2min <- bake(p1, iris))

## # A tibble: 150 × 6
##    Sepal.Length Petal.Length Petal.Width Species_setosa Species_versicolor
##           <dbl>        <dbl>       <dbl>          <dbl>              <dbl>
##  1        0.966        0.227       0.131              1                  0
##  2        0.725        0.227       0.131              1                  0
##  3        0.483        0.170       0.131              1                  0
##  4        0.362        0.283       0.131              1                  0
##  5        0.845        0.227       0.131              1                  0
##  6        1.33         0.397       0.394              1                  0
##  7        0.362        0.227       0.262              1                  0
##  8        0.845        0.283       0.131              1                  0
##  9        0.121        0.227       0.131              1                  0
## 10        0.725        0.283       0                  1                  0
## # … with 140 more rows, and 1 more variable: Species_virginica <dbl>
…
Or directly into sparseR:

srl_centered2min <- sparseR(Sepal.Width ~ ., iris, extra_opts = list(centers = cc), seed = 1)

Or, a function can be passed to evaluate the location for each covariate:

p2 <- sparseR_prep(Sepal.Width ~ ., iris, k = 0, extra_opts = list(center_fn = min))
(c2min2 <- bake(p2, iris))

## # A tibble: 150 × 6
##    Sepal.Length Petal.Length Petal.Width Species_setosa Species_versicolor
##           <dbl>        <dbl>       <dbl>          <dbl>              <dbl>
##  1        0.966        0.227       0.131              1                  0
##  2        0.725        0.227       0.131              1                  0
##  3        0.483        0.170       0.131              1                  0
##  4        0.362        0.283       0.131              1                  0
##  5        0.845        0.227       0.131              1                  0
##  6        1.33         0.397       0.394              1                  0
##  7        0.362        0.227       0.262              1                  0
##  8        0.845        0.283       0.131              1                  0
##  9        0.121        0.227       0.131              1                  0
## 10        0.725        0.283       0                  1                  0
## # … with 140 more rows, and 1 more variable: Species_virginica <dbl>
…
